{
	"UserId": "user012",
	"transactionDate": "2022-08-151945PM",
	"status": "to ship",
	"total": 138980,
	"paymentMethod": "cash"
},
{
	"UserId": "user234",
	"transactionDate": "2022-08-151955PM",
	"status": "to ship",
	"total": 109970,
	"paymentMethod": "cash"
}